{
  "images" : [
    {
      "idiom" : "universal",
      "scale" : "1x",
      "filename" : "Visitarcontacto.png"
    },
    {
      "idiom" : "universal",
      "scale" : "2x",
      "filename" : "Visitarcontacto@2x.png"
    },
    {
      "idiom" : "universal",
      "scale" : "3x",
      "filename" : "Visitarcontacto@3x.png"
    }
  ],
  "info" : {
    "version" : 1,
    "author" : "silver-ux"
  }
}